#group_id,species,gene_id
PATHWAY1,ath,AT5G03800
PATHWAY1,ath,AT5G52850
PATHWAY1,ath,AT5G06540
PATHWAY1,ath,AT1G10330
PATHWAY2,ath,AT3G05240
PATHWAY2,ath,AT3G28640
PATHWAY2,ath,AT4G04370
PATHWAY2,ath,AT5G42450
PATHWAY2,ath,AT4G39530
PATHWAY2,ath,AT1G33350
