Reference	Locus	SNP	INDEL	Haplotype_Name	sample1	sample2	sample3	sample4	sample5	sample6	sample7	sample8
gene1	gene1_1	()	()	nan	0	0	0	0	0	0	0	0
gene2	gene2_1	()	()	nan	0	0	0	0	0	0	0	0
gene3	gene3_1	()	()	nan	0	0	0	0	0	0	0	0
gene4	gene4_1	nan	(861, 'G', 'GA'),(861, 'G', 'GT'),(860, 'TG', 'T')	2:1I:G-GA,2:1I:G-GT,1:1D:TG-T	0	0	1	1	0	0	1	1
gene5	gene5_1	()	()	nan	0	0	0	0	0	0	0	0
gene6	gene6_1	()	()	nan	0	0	0	0	0	0	0	0
gene7	gene7_1	nan	(339, 'G', 'GA'),(336, 'CG', 'C')	2:1I:G-GA,-1:1D:CG-C	0	0	1	1	1	1	1	1
gene8	gene8_1	nan	(1825, 'C', 'CT')	2:1I:C-CT	0	0	1	1	1	1	1	1
gene9	gene9_1	nan	(339, 'G', 'GA'),(339, 'G', 'GC'),(339, 'G', 'GT'),(339, 'GC', 'G'),(339, 'GCT', 'G'),(339, 'GC', 'G'),(341, 'TG', 'T')	-2:1I:G-GA,-2:1I:G-GC,-2:1I:G-GT,-2:1D:GC-G,-2:2D:GCT-G,-2:1D:GC-G,-4:1D:TG-T	0	0	1	1	1	1	1	1
